{
  "fileFormatVersion": 1,
  "clientSchemaVersion": 1,
  "serverSchemaVersion": 3,
  "publishedDefaultPageName": "LandingPAge",
  "unpublishedDefaultPageName": "LandingPAge",
  "invisibleActionFields": {},
  "editModeTheme": {
    "name": "Classic",
    "displayName": "Classic",
    "isSystemTheme": true,
    "deleted": false
  },
  "publishedTheme": {
    "name": "Classic",
    "displayName": "Classic",
    "isSystemTheme": true,
    "deleted": false
  },
  "publishedLayoutmongoEscapedWidgets": {},
  "unpublishedLayoutmongoEscapedWidgets": {}
}